\relax 
\select@language{italian}
\@writefile{toc}{\select@language{italian}}
\@writefile{lof}{\select@language{italian}}
\@writefile{lot}{\select@language{italian}}
\select@language{italian}
\@writefile{toc}{\select@language{italian}}
\@writefile{lof}{\select@language{italian}}
\@writefile{lot}{\select@language{italian}}
\pgfsyspdfmark {pgfid1}{1341527}{15809219}
\pgfsyspdfmark {pgfid2}{1598206}{15809219}
\pgfsyspdfmark {pgfid3}{1341527}{15809219}
\pgfsyspdfmark {pgfid4}{1598206}{15809219}
\pgfsyspdfmark {pgfid5}{1341527}{15809219}
\pgfsyspdfmark {pgfid6}{1598206}{15809219}
\pgfsyspdfmark {pgfid7}{1341527}{15809219}
\pgfsyspdfmark {pgfid8}{1598206}{15809219}
\pgfsyspdfmark {pgfid9}{1341527}{15809219}
\pgfsyspdfmark {pgfid10}{1598206}{15809219}
\pgfsyspdfmark {pgfid11}{1341527}{15809219}
\pgfsyspdfmark {pgfid12}{1598206}{15809219}
\pgfsyspdfmark {pgfid13}{1341527}{15809219}
\pgfsyspdfmark {pgfid14}{1598206}{15809219}
\pgfsyspdfmark {pgfid15}{1341527}{15809219}
\pgfsyspdfmark {pgfid16}{1598206}{15809219}
\pgfsyspdfmark {pgfid17}{1341527}{15809219}
\pgfsyspdfmark {pgfid18}{1598206}{15809219}
\pgfsyspdfmark {pgfid19}{1341527}{15809219}
\pgfsyspdfmark {pgfid20}{1598206}{15809219}
\pgfsyspdfmark {pgfid21}{1341527}{15809219}
\pgfsyspdfmark {pgfid22}{1598206}{15809219}
\pgfsyspdfmark {pgfid23}{1341527}{15809219}
\pgfsyspdfmark {pgfid24}{1598206}{15809219}
\pgfsyspdfmark {pgfid25}{1341527}{15809219}
\pgfsyspdfmark {pgfid26}{1598206}{15809219}
\pgfsyspdfmark {pgfid27}{1341527}{15809219}
\pgfsyspdfmark {pgfid28}{1598206}{15809219}
\pgfsyspdfmark {pgfid29}{1341527}{15809219}
\pgfsyspdfmark {pgfid30}{1598206}{15809219}
\pgfsyspdfmark {pgfid31}{1341527}{15809219}
\pgfsyspdfmark {pgfid32}{1598206}{15809219}
\pgfsyspdfmark {pgfid33}{1341527}{15809219}
\pgfsyspdfmark {pgfid34}{1598206}{15809219}
\pgfsyspdfmark {pgfid35}{1341527}{15809219}
\pgfsyspdfmark {pgfid36}{1598206}{15809219}
\pgfsyspdfmark {pgfid37}{1341527}{15809219}
\pgfsyspdfmark {pgfid38}{1598206}{15809219}
\pgfsyspdfmark {pgfid39}{1341527}{15809219}
\pgfsyspdfmark {pgfid40}{1598206}{15809219}
\pgfsyspdfmark {pgfid41}{1341527}{15809219}
\pgfsyspdfmark {pgfid42}{1598206}{15809219}
\pgfsyspdfmark {pgfid43}{1341527}{15809219}
\pgfsyspdfmark {pgfid44}{1598206}{15809219}
\pgfsyspdfmark {pgfid45}{1341527}{15809219}
\pgfsyspdfmark {pgfid46}{1598206}{15809219}
\pgfsyspdfmark {pgfid47}{1341527}{15809219}
\pgfsyspdfmark {pgfid48}{1598206}{15809219}
\pgfsyspdfmark {pgfid49}{1341527}{15809219}
\pgfsyspdfmark {pgfid50}{1598206}{15809219}
\pgfsyspdfmark {pgfid51}{1341527}{15809219}
\pgfsyspdfmark {pgfid52}{1598206}{15809219}
\pgfsyspdfmark {pgfid53}{1341527}{15809219}
\pgfsyspdfmark {pgfid54}{1598206}{15809219}
\pgfsyspdfmark {pgfid55}{1341527}{15809219}
\pgfsyspdfmark {pgfid56}{1598206}{15809219}
\pgfsyspdfmark {pgfid57}{1341527}{15809219}
\pgfsyspdfmark {pgfid58}{1598206}{15809219}
\pgfsyspdfmark {pgfid59}{1341527}{15809219}
\pgfsyspdfmark {pgfid60}{1598206}{15809219}
\pgfsyspdfmark {pgfid61}{1341527}{15809219}
\pgfsyspdfmark {pgfid62}{1598206}{15809219}
\pgfsyspdfmark {pgfid63}{1341527}{15809219}
\pgfsyspdfmark {pgfid64}{1598206}{15809219}
\pgfsyspdfmark {pgfid65}{1341527}{15809219}
\pgfsyspdfmark {pgfid66}{1598206}{15809219}
\pgfsyspdfmark {pgfid67}{1341527}{15809219}
\pgfsyspdfmark {pgfid68}{1598206}{15809219}
\pgfsyspdfmark {pgfid69}{1341527}{15809219}
\pgfsyspdfmark {pgfid70}{1598206}{15809219}
\pgfsyspdfmark {pgfid71}{1341527}{15809219}
\pgfsyspdfmark {pgfid72}{1598206}{15809219}
\pgfsyspdfmark {pgfid73}{1341527}{15809219}
\pgfsyspdfmark {pgfid74}{1598206}{15809219}
\pgfsyspdfmark {pgfid75}{1341527}{15809219}
\pgfsyspdfmark {pgfid76}{1598206}{15809219}
\pgfsyspdfmark {pgfid77}{1341527}{15809219}
\pgfsyspdfmark {pgfid78}{1598206}{15809219}
\pgfsyspdfmark {pgfid79}{1341527}{15809219}
\pgfsyspdfmark {pgfid80}{1598206}{15809219}
\pgfsyspdfmark {pgfid81}{1341527}{15809219}
\pgfsyspdfmark {pgfid82}{1598206}{15809219}
\pgfsyspdfmark {pgfid83}{1341527}{15809219}
\pgfsyspdfmark {pgfid84}{1598206}{15809219}
\pgfsyspdfmark {pgfid85}{1341527}{15809219}
\pgfsyspdfmark {pgfid86}{1598206}{15809219}
\pgfsyspdfmark {pgfid87}{1341527}{15809219}
\pgfsyspdfmark {pgfid88}{1598206}{15809219}
\pgfsyspdfmark {pgfid89}{1341527}{15809219}
\pgfsyspdfmark {pgfid90}{1598206}{15809219}
\pgfsyspdfmark {pgfid91}{1341527}{15809219}
\pgfsyspdfmark {pgfid92}{1598206}{15809219}
\pgfsyspdfmark {pgfid93}{1341527}{15809219}
\pgfsyspdfmark {pgfid94}{1598206}{15809219}
\pgfsyspdfmark {pgfid95}{1341527}{15809219}
\pgfsyspdfmark {pgfid96}{1598206}{15809219}
\pgfsyspdfmark {pgfid97}{1341527}{15809219}
\pgfsyspdfmark {pgfid98}{1598206}{15809219}
\pgfsyspdfmark {pgfid99}{1341527}{15809219}
\pgfsyspdfmark {pgfid100}{1598206}{15809219}
\pgfsyspdfmark {pgfid101}{1341527}{15809219}
\pgfsyspdfmark {pgfid102}{1598206}{15809219}
\pgfsyspdfmark {pgfid103}{1341527}{15809219}
\pgfsyspdfmark {pgfid104}{1598206}{15809219}
\pgfsyspdfmark {pgfid105}{1341527}{15809219}
\pgfsyspdfmark {pgfid106}{1598206}{15809219}
\pgfsyspdfmark {pgfid107}{1341527}{15809219}
\pgfsyspdfmark {pgfid108}{1598206}{15809219}
